Assignment: Temporal Diversity
…
# 1. Create a time-by-species matrix that includes year, month, and plot_id for a site other than plot_id 2.
# Make a date vector that contains year, month, and day
portal = unite(portal, col = date, c(year, month, day), sep = "-", remove = FALSE)

# Make a taxon vector that contains genus and species names
portal = unite(portal, col = taxon, c(genus, species), sep = "_", remove = FALSE)

time.by.species = portal %>%  
                  group_by(year, plot_id) %>% 
                  count(taxon) %>% 
                  spread(key = taxon, value = n, fill = 0)
 
filter(time.by.species, year == 1984)

## Source: local data frame [24 x 50]
## Groups: year, plot_id [24]
## 
##     year plot_id Ammodramus_savannarum Ammospermophilus_harrisi
##    <int>   <int>                 <dbl>                    <dbl>
## 1   1984       1                     0                        0
## 2   1984       2                     0                        0
## 3   1984       3                     0                        0
## 4   1984       4                     0                        0
## 5   1984       5                     0                        0
## 6   1984       6                     0                        0
## 7   1984       7                     0                        0
## 8   1984       8                     0                        0
## 9   1984       9                     0                        1
## 10  1984      10                     0                        0
## # ... with 14 more rows, and 46 more variables:
## #   Amphispiza_bilineata <dbl>, Baiomys_taylori <dbl>,
## #   Calamospiza_melanocorys <dbl>, Callipepla_squamata <dbl>,
## #   Campylorhynchus_brunneicapillus <dbl>, Chaetodipus_baileyi <dbl>,
## #   Chaetodipus_intermedius <dbl>, Chaetodipus_penicillatus <dbl>,
## #   Chaetodipus_sp. <dbl>, Cnemidophorus_tigris <dbl>,
## #   Cnemidophorus_uniparens <dbl>, Crotalus_scutalatus <dbl>,
## #   Crotalus_viridis <dbl>, Dipodomys_merriami <dbl>,
## #   Dipodomys_ordii <dbl>, Dipodomys_sp. <dbl>,
…
filter(time.by.species, plot_id == 5)

## Source: local data frame [26 x 50]
## Groups: year, plot_id [26]
## 
##     year plot_id Ammodramus_savannarum Ammospermophilus_harrisi
##    <int>   <int>                 <dbl>                    <dbl>
## 1   1977       5                     0                        0
## 2   1978       5                     0                        0
## 3   1979       5                     0                        0
## 4   1980       5                     0                        0
## 5   1981       5                     0                        0
## 6   1982       5                     0                        0
## 7   1983       5                     0                        0
## 8   1984       5                     0                        0
## 9   1985       5                     0                        0
## 10  1986       5                     0                        0
## # ... with 16 more rows, and 46 more variables:
## #   Amphispiza_bilineata <dbl>, Baiomys_taylori <dbl>,
## #   Calamospiza_melanocorys <dbl>, Callipepla_squamata <dbl>,
## #   Campylorhynchus_brunneicapillus <dbl>, Chaetodipus_baileyi <dbl>,
## #   Chaetodipus_intermedius <dbl>, Chaetodipus_penicillatus <dbl>,
## #   Chaetodipus_sp. <dbl>, Cnemidophorus_tigris <dbl>,
## #   Cnemidophorus_uniparens <dbl>, Crotalus_scutalatus <dbl>,
## #   Crotalus_viridis <dbl>, Dipodomys_merriami <dbl>,
## #   Dipodomys_ordii <dbl>, Dipodomys_sp. <dbl>,
…
# 2. Examine per-hectare rodent abundance using simple moving average smoothing.
# Create a time-by-species matrix that includes year, month, and plot_id
time.by.spec.2 = filter(portal, taxa=="Rodent") %>% 
                 group_by(year, month, plot_id) %>%
                 count(taxon)
# Create a seasonality variable using month number (6 = June; 10 = October)
time.by.spec.2$season = NA
time.by.spec.2$season = time.by.spec.2$month %in% c(6:10)
# Rainy seasons are June - October
time.by.spec.2$season = ifelse(time.by.spec.2$season == TRUE, "rain", "norain")
# Group the data by year and season
group_by(time.by.spec.2, year, season)

## Source: local data frame [16,391 x 6]
## Groups: year, season [52]
## 
##     year month plot_id                    taxon     n season
##    <int> <int>   <int>                    <chr> <int>  <chr>
## 1   1977     7       1       Dipodomys_merriami     2   rain
## 2   1977     7       1       Perognathus_flavus     1   rain
## 3   1977     7       2 Chaetodipus_penicillatus     1   rain
## 4   1977     7       2       Dipodomys_merriami     1   rain
## 5   1977     7       2         Neotoma_albigula     1   rain
## 6   1977     7       2      Peromyscus_eremicus     1   rain
## 7   1977     7       3       Dipodomys_merriami     2   rain
## 8   1977     7       3    Dipodomys_spectabilis     1   rain
## 9   1977     7       3         Neotoma_albigula     1   rain
## 10  1977     7       4       Dipodomys_merriami     1   rain
## # ... with 16,381 more rows
…
